Shelf,Shell Pasta,2.99
Shelf,Shell Pasta,2.99
Shelf,Shell Pasta,2.99
Shelf,Shell Pasta,2.99
Shelf,Shell Pasta,2.99
Produce,Yellow Onions,1.29,5/5/2022
Produce,Yellow Onions,1.29,5/5/2022
Produce,Yellow Onions,1.29,5/5/2022
Produce,Yellow Onions,1.29,5/5/2022
Produce,Yellow Onions,1.29,5/5/2022
Restricted,Absinthe,21.99,21
Restricted,Absinthe,21.99,21
Restricted,Absinthe,21.99,21
Restricted,Absinthe,21.99,21
Restricted,Absinthe,21.99,21
